{
  "iisSettings": {
    "windowsAuthentication": false,
    "anonymousAuthentication": true,
    "iisExpress": {
      "applicationUrl": "https://localhost:44380",
      "sslPort": 44380
    }
  },
  "profiles": {
    "IIS Express": {
      "commandName": "IISExpress",
      "launchBrowser": true,
      "environmentVariables": {
        "ASPNETCORE_ENVIRONMENT": "Development"
      }
    },
    "FRTTMO.CAM.PromotionAPI.DemoApp.Development": {
      "commandName": "Project",
      "launchBrowser": true,
      "applicationUrl": "https://localhost:44380",
      "environmentVariables": {
        "ASPNETCORE_ENVIRONMENT": "Development"
      }
    },
    "FRTTMO.CAM.PromotionAPI.DemoApp.CI": {
      "commandName": "Project",
      "launchBrowser": true,
      "applicationUrl": "https://localhost:44380",
      "environmentVariables": {
        "ASPNETCORE_ENVIRONMENT": "ci"
      }
    },
    "FRTTMO.CAM.PromotionAPI.DemoApp.UAT": {
      "commandName": "Project",
      "launchBrowser": true,
      "applicationUrl": "https://localhost:44380",
      "environmentVariables": {
        "ASPNETCORE_ENVIRONMENT": "UAT"
      }
    }
  }

}